%YAML 1.1
%TAG !u! tag:unity3d.com,2011:
--- !u!114 &11400000
MonoBehaviour:
  m_ObjectHideFlags: 0
  m_CorrespondingSourceObject: {fileID: 0}
  m_PrefabInstance: {fileID: 0}
  m_PrefabAsset: {fileID: 0}
  m_GameObject: {fileID: 0}
  m_Enabled: 1
  m_EditorHideFlags: 0
  m_Script: {fileID: 11500000, guid: 2e426b8eed403e84cbad3a87ec16c4fd, type: 3}
  m_Name: HealthStat
  m_EditorClassIdentifier: 
  ID: HEALTH
  Info:
    DefaultAmount: 100
    Icon: {fileID: 21300000, guid: 01090f44067098648893d0e7675917de, type: 3}
    IconColor: {r: 1, g: 0, b: 0, a: 1}
  AutoRemoveValueSpeed: 0.5
