%YAML 1.1
%TAG !u! tag:unity3d.com,2011:
--- !u!114 &11400000
MonoBehaviour:
  m_ObjectHideFlags: 0
  m_CorrespondingSourceObject: {fileID: 0}
  m_PrefabInstance: {fileID: 0}
  m_PrefabAsset: {fileID: 0}
  m_GameObject: {fileID: 0}
  m_Enabled: 1
  m_EditorHideFlags: 0
  m_Script: {fileID: 11500000, guid: 7eb99fd73b952e44baaf9dba4c6ced1b, type: 3}
  m_Name: StaminaStat
  m_EditorClassIdentifier: 
  ID: STAMINA
  Info:
    DefaultAmount: 100
    Icon: {fileID: 21300000, guid: b0a29d5b40db0d2468f4c7b7f907aa60, type: 3}
    IconColor: {r: 1, g: 1, b: 1, a: 1}
  UseValueSpeed: 10
