{
    "name": "InputMaster",
    "maps": [
        {
            "name": "Player",
            "id": "9a850321-caa8-472f-ba25-837c4d0c0938",
            "actions": [
                {
                    "name": "Interact",
                    "id": "e7835712-ba60-4802-b023-d4ec66f4e3b9",
                    "expectedControlLayout": "",
                    "continuous": false,
                    "passThrough": false,
                    "processors": "",
                    "interactions": "",
                    "bindings": []
                },
                {
                    "name": "MainAction",
                    "id": "9a9cc40f-8dad-4238-9781-63c9b6631142",
                    "expectedControlLayout": "",
                    "continuous": false,
                    "passThrough": false,
                    "processors": "",
                    "interactions": "",
                    "bindings": []
                },
                {
                    "name": "SecondAction",
                    "id": "08f6fec6-4d2e-4379-8a7e-3bba7bb02d4f",
                    "expectedControlLayout": "",
                    "continuous": false,
                    "passThrough": false,
                    "processors": "",
                    "interactions": "",
                    "bindings": []
                },
                {
                    "name": "Tablet",
                    "id": "f7aed42f-ea66-4df2-b7c8-c302ba2d7cfa",
                    "expectedControlLayout": "",
                    "continuous": false,
                    "passThrough": false,
                    "processors": "",
                    "interactions": "",
                    "bindings": []
                },
                {
                    "name": "Light",
                    "id": "7d5bbdba-3db8-434b-8357-19ba729d0c68",
                    "expectedControlLayout": "",
                    "continuous": false,
                    "passThrough": false,
                    "processors": "",
                    "interactions": "",
                    "bindings": []
                },
                {
                    "name": "Movement",
                    "id": "d4fc2f2a-918f-4575-830d-50d1b0b007a4",
                    "expectedControlLayout": "",
                    "continuous": false,
                    "passThrough": false,
                    "processors": "",
                    "interactions": "",
                    "bindings": []
                },
                {
                    "name": "Jump",
                    "id": "44a63f29-8a0a-4182-916e-68fa0f8e92a8",
                    "expectedControlLayout": "",
                    "continuous": false,
                    "passThrough": false,
                    "processors": "",
                    "interactions": "",
                    "bindings": []
                }
            ],
            "bindings": [
                {
                    "name": "",
                    "path": "<Keyboard>/f",
                    "interactions": "Press(behavior=2)",
                    "processors": "",
                    "groups": ";KeyboardAndMouse",
                    "action": "Interact",
                    "chainWithPrevious": false,
                    "isComposite": false,
                    "isPartOfComposite": false,
                    "modifiers": ""
                },
                {
                    "name": "",
                    "path": "<Gamepad>/buttonSouth",
                    "interactions": "Press(behavior=2)",
                    "processors": "",
                    "groups": "Gamepad",
                    "action": "Interact",
                    "chainWithPrevious": false,
                    "isComposite": false,
                    "isPartOfComposite": false,
                    "modifiers": ""
                },
                {
                    "name": "",
                    "path": "<Mouse>/leftButton",
                    "interactions": "Press(behavior=2)",
                    "processors": "",
                    "groups": ";KeyboardAndMouse",
                    "action": "MainAction",
                    "chainWithPrevious": false,
                    "isComposite": false,
                    "isPartOfComposite": false,
                    "modifiers": ""
                },
                {
                    "name": "",
                    "path": "<Gamepad>/buttonWest",
                    "interactions": "Press",
                    "processors": "",
                    "groups": "Gamepad",
                    "action": "MainAction",
                    "chainWithPrevious": false,
                    "isComposite": false,
                    "isPartOfComposite": false,
                    "modifiers": ""
                },
                {
                    "name": "",
                    "path": "<Mouse>/rightButton",
                    "interactions": "Press(behavior=2)",
                    "processors": "",
                    "groups": ";KeyboardAndMouse",
                    "action": "SecondAction",
                    "chainWithPrevious": false,
                    "isComposite": false,
                    "isPartOfComposite": false,
                    "modifiers": ""
                },
                {
                    "name": "",
                    "path": "<Keyboard>/tab",
                    "interactions": "Press",
                    "processors": "",
                    "groups": ";KeyboardAndMouse",
                    "action": "Tablet",
                    "chainWithPrevious": false,
                    "isComposite": false,
                    "isPartOfComposite": false,
                    "modifiers": ""
                },
                {
                    "name": "",
                    "path": "<Keyboard>/l",
                    "interactions": "Press",
                    "processors": "",
                    "groups": ";KeyboardAndMouse",
                    "action": "Light",
                    "chainWithPrevious": false,
                    "isComposite": false,
                    "isPartOfComposite": false,
                    "modifiers": ""
                },
                {
                    "name": "arrowKeys",
                    "path": "Dpad",
                    "interactions": "",
                    "processors": "",
                    "groups": "",
                    "action": "Movement",
                    "chainWithPrevious": false,
                    "isComposite": true,
                    "isPartOfComposite": false,
                    "modifiers": ""
                },
                {
                    "name": "up",
                    "path": "<Keyboard>/upArrow",
                    "interactions": "",
                    "processors": "",
                    "groups": ";KeyboardAndMouse",
                    "action": "Movement",
                    "chainWithPrevious": false,
                    "isComposite": false,
                    "isPartOfComposite": true,
                    "modifiers": ""
                },
                {
                    "name": "down",
                    "path": "<Keyboard>/downArrow",
                    "interactions": "",
                    "processors": "",
                    "groups": ";KeyboardAndMouse",
                    "action": "Movement",
                    "chainWithPrevious": false,
                    "isComposite": false,
                    "isPartOfComposite": true,
                    "modifiers": ""
                },
                {
                    "name": "left",
                    "path": "<Keyboard>/leftArrow",
                    "interactions": "",
                    "processors": "",
                    "groups": ";KeyboardAndMouse",
                    "action": "Movement",
                    "chainWithPrevious": false,
                    "isComposite": false,
                    "isPartOfComposite": true,
                    "modifiers": ""
                },
                {
                    "name": "right",
                    "path": "<Keyboard>/rightArrow",
                    "interactions": "",
                    "processors": "",
                    "groups": ";KeyboardAndMouse",
                    "action": "Movement",
                    "chainWithPrevious": false,
                    "isComposite": false,
                    "isPartOfComposite": true,
                    "modifiers": ""
                },
                {
                    "name": "wasdKeys",
                    "path": "Dpad",
                    "interactions": "",
                    "processors": "",
                    "groups": "",
                    "action": "Movement",
                    "chainWithPrevious": false,
                    "isComposite": true,
                    "isPartOfComposite": false,
                    "modifiers": ""
                },
                {
                    "name": "up",
                    "path": "<Keyboard>/w",
                    "interactions": "",
                    "processors": "",
                    "groups": ";KeyboardAndMouse",
                    "action": "Movement",
                    "chainWithPrevious": false,
                    "isComposite": false,
                    "isPartOfComposite": true,
                    "modifiers": ""
                },
                {
                    "name": "down",
                    "path": "<Keyboard>/s",
                    "interactions": "",
                    "processors": "",
                    "groups": ";KeyboardAndMouse",
                    "action": "Movement",
                    "chainWithPrevious": false,
                    "isComposite": false,
                    "isPartOfComposite": true,
                    "modifiers": ""
                },
                {
                    "name": "left",
                    "path": "<Keyboard>/a",
                    "interactions": "",
                    "processors": "",
                    "groups": ";KeyboardAndMouse",
                    "action": "Movement",
                    "chainWithPrevious": false,
                    "isComposite": false,
                    "isPartOfComposite": true,
                    "modifiers": ""
                },
                {
                    "name": "right",
                    "path": "<Keyboard>/d",
                    "interactions": "",
                    "processors": "",
                    "groups": ";KeyboardAndMouse",
                    "action": "Movement",
                    "chainWithPrevious": false,
                    "isComposite": false,
                    "isPartOfComposite": true,
                    "modifiers": ""
                },
                {
                    "name": "Dpad",
                    "path": "Dpad",
                    "interactions": "",
                    "processors": "",
                    "groups": "",
                    "action": "Movement",
                    "chainWithPrevious": false,
                    "isComposite": true,
                    "isPartOfComposite": false,
                    "modifiers": ""
                },
                {
                    "name": "up",
                    "path": "<Gamepad>/dpad/up",
                    "interactions": "",
                    "processors": "",
                    "groups": "Gamepad",
                    "action": "Movement",
                    "chainWithPrevious": false,
                    "isComposite": false,
                    "isPartOfComposite": true,
                    "modifiers": ""
                },
                {
                    "name": "down",
                    "path": "<Gamepad>/dpad/down",
                    "interactions": "",
                    "processors": "",
                    "groups": "Gamepad",
                    "action": "Movement",
                    "chainWithPrevious": false,
                    "isComposite": false,
                    "isPartOfComposite": true,
                    "modifiers": ""
                },
                {
                    "name": "left",
                    "path": "<Gamepad>/dpad/left",
                    "interactions": "",
                    "processors": "",
                    "groups": "Gamepad",
                    "action": "Movement",
                    "chainWithPrevious": false,
                    "isComposite": false,
                    "isPartOfComposite": true,
                    "modifiers": ""
                },
                {
                    "name": "right",
                    "path": "<Gamepad>/dpad/right",
                    "interactions": "",
                    "processors": "",
                    "groups": "Gamepad",
                    "action": "Movement",
                    "chainWithPrevious": false,
                    "isComposite": false,
                    "isPartOfComposite": true,
                    "modifiers": ""
                },
                {
                    "name": "right",
                    "path": "<Keyboard>/space",
                    "interactions": "Press",
                    "processors": "",
                    "groups": ";KeyboardAndMouse",
                    "action": "Jump",
                    "chainWithPrevious": false,
                    "isComposite": false,
                    "isPartOfComposite": false,
                    "modifiers": ""
                },
                {
                    "name": "right",
                    "path": "<Gamepad>/buttonSouth",
                    "interactions": "Press",
                    "processors": "",
                    "groups": "Gamepad",
                    "action": "Jump",
                    "chainWithPrevious": false,
                    "isComposite": false,
                    "isPartOfComposite": false,
                    "modifiers": ""
                }
            ]
        }
    ],
    "controlSchemes": [
        {
            "name": "KeyboardAndMouse",
            "basedOn": "",
            "bindingGroup": "KeyboardAndMouse",
            "devices": [
                {
                    "devicePath": "<Keyboard>",
                    "isOptional": false,
                    "isOR": false
                },
                {
                    "devicePath": "<Mouse>",
                    "isOptional": false,
                    "isOR": false
                }
            ]
        },
        {
            "name": "Gamepad",
            "basedOn": "",
            "bindingGroup": "Gamepad",
            "devices": [
                {
                    "devicePath": "<Gamepad>",
                    "isOptional": false,
                    "isOR": false
                }
            ]
        }
    ]
}